{
  "kv_list": [
    0,
    70,
    80,
    90,
    100,
    110,
    120,
    130,
    140
  ],
  "ma_list": [
    0,
    525,
    641,
    765,
    896,
    1034,
    1178,
    1329,
    1485
  ],
  "pitch_list": [
    0.5,
    0.6,
    0.7,
    0.8,
    0.9,
    1,
    1.1,
    1.2,
    1.3,
    1.4,
    1.5
  ],
  "kv_ma": [
    {
      "kv": 0,
      "ma": [
        0
      ]
    },
    {
      "kv": 70,
      "ma": [
        525,
        641
      ]
    },
    {
      "kv": 80,
      "ma": [
        525,
        641
      ]
    },
    {
      "kv": 90,
      "ma": [
        641,
        765
      ]
    },
    {
      "kv": 100,
      "ma": [
        765,
        896
      ]
    },
    {
      "kv": 110,
      "ma": [
        765,
        896
      ]
    },
    {
      "kv": 120,
      "ma": [
        896,
        1034
      ]
    },
    {
      "kv": 130,
      "ma": [
        1034,
        1178
      ]
    },
    {
      "kv": 140,
      "ma": [
        1178,
        1329,
        1485
      ]
    }
  ]
}
