{
 "study_id": null,
 "number": 2,
 "body_area": {
  "name": "chest"
 },
 "area_kind": {
  "name": "adult"
 },
 "name": "Stationary table",
 "icon": "",
 "area": {
  "start_x": 250,
  "stop_x": 450,
  "start_y": 600,
  "stop_y": 800,
  "start_z": 100,
  "stop_z": 200
 },
 "zero_line_position": 100,
 "description": "",
 "description_img": "",
 "example_protocol": true,
 "steps": [
  {
   "number": 1,
   "name": "Scout",
   "reconstruction": {
    "width": 512,
    "height": 512,
    "kernel": "standard",
    "noise_reduction": 1,
    "metal_correction": false,
    "resolution": "512x512",
    "slice_size": "0.5",
    "axial_distance": 1
   },
   "sequence_name": "Stationary table",
   "scan_type": {
    "name": "scout_two_side"
   },
   "number_of_volume_images": 4,
   "start_voice_command": {
    "name": ""
   },
   "end_voice_command": {
    "name": ""
   },
   "is_auto_start": false,
   "patient_position": {
    "name": "head_to_gentry_on_back_arms_to_legs"
   },
   "area": {
    "start_x": 0,
    "stop_x": 600,
    "start_y": 0,
    "stop_y": 0,
    "start_z": 0,
    "stop_z": 400
   },
   "start_position": 0.0,
   "start_position_min": -200.0,
   "start_position_max": 300.0,
   "stop_position": 100.0,
   "stop_position_min": -200.0,
   "stop_position_max": 200.0,
   "table_height": 100.0,
   "table_height_min": 80,
   "table_height_max": 120.0,
   "auto_calculated": {
    "name": "table_speed"
   },
   "pitch": null,
   "pitch_min": null,
   "pitch_max": null,
   "collimator_width": 0.03,
   "collimator_width_min": 0.03,
   "collimator_width_max": 1.67,
   "table_speed": 0.0,
   "table_speed_min": 0.0,
   "table_speed_max": 0.0,
   "kv": 70,
   "kv_min": 70,
   "kv_max": 140,
   "dose_max": 3.0,
   "ma": 525,
   "ma_min": 525,
   "ma_max": 1485,
   "contrast": {
    "type": {
     "name": "contrast_1"
    },
    "density": 300,
    "density_min": 300,
    "density_max": 400,
    "volume": 2.0,
    "volume_min": 1.0,
    "volume_max": 3.0,
    "solvent_volume": 1.0,
    "solvent_volume_min": 0.0,
    "solvent_volume_max": 2.0,
    "start_delay": 0,
    "step_delay": 0,
    "only_manual": false,
    "max_wait": 60,
    "max_check_count": 20,
    "concentration_threshold": 3,
    "diameter_roi_circle": 5,
    "diameter_roi_circle_min": 3,
    "diameter_roi_circle_max": 10
   },
   "cardio_start": [
    {
     "index": 0,
     "enabled": true,
     "offset": 0,
     "frames": 4,
     "scans": 3
    },
    {
     "index": 1,
     "enabled": true,
     "offset": 0.4,
     "frames": 2,
     "scans": 3
    },
    {
     "index": 2,
     "enabled": true,
     "offset": 0.95,
     "frames": 2,
     "scans": 3
    }
   ],
   "is_cardio_start": false,
   "table_motion": {
    "name": "stationary"
   },
   "start_delay": 0
  },
  {
   "number": 2,
   "name": "3D",
   "reconstruction": {
    "width": 512,
    "height": 512,
    "kernel": "standard",
    "noise_reduction": 1,
    "metal_correction": false,
    "resolution": "512x512",
    "slice_size": "0.5",
    "axial_distance": 1
   },
   "sequence_name": "Stationary table",
   "scan_type": {
    "name": "helical"
   },
   "number_of_volume_images": 7,
   "start_voice_command": {
    "name": ""
   },
   "end_voice_command": {
    "name": ""
   },
   "is_auto_start": false,
   "patient_position": {
    "name": "head_to_gentry_on_back_arms_to_legs"
   },
   "area": {
    "start_x": 0,
    "stop_x": 600,
    "start_y": 0,
    "stop_y": 0,
    "start_z": 0,
    "stop_z": 400
   },
   "start_position": 0.0,
   "start_position_min": -200.0,
   "start_position_max": 300.0,
   "stop_position": 0.0,
   "stop_position_min": -200.0,
   "stop_position_max": 200,
   "table_height": 100.0,
   "table_height_min": 80,
   "table_height_max": 120.0,
   "auto_calculated": {
    "name": "table_speed"
   },
   "pitch": null,
   "pitch_min": null,
   "pitch_max": null,
   "collimator_width": 0.03,
   "collimator_width_min": 0.03,
   "collimator_width_max": 1.67,
   "table_speed": 0.0,
   "table_speed_min": 0.0,
   "table_speed_max": 0.0,
   "kv": 70,
   "kv_min": 70,
   "kv_max": 140,
   "dose_max": 3.0,
   "ma": 525,
   "ma_min": 525,
   "ma_max": 1485,
   "contrast": {
    "type": {
     "name": "contrast_1"
    },
    "density": 300,
    "density_min": 300,
    "density_max": 400,
    "volume": 2.0,
    "volume_min": 1.0,
    "volume_max": 3.0,
    "solvent_volume": 1.0,
    "solvent_volume_min": 0.0,
    "solvent_volume_max": 2.0,
    "start_delay": 0,
    "step_delay": 0,
    "only_manual": false,
    "max_wait": 60,
    "max_check_count": 20,
    "concentration_threshold": 3,
    "diameter_roi_circle": 5,
    "diameter_roi_circle_min": 3,
    "diameter_roi_circle_max": 10
   },
   "cardio_start": [
    {
     "index": 0,
     "enabled": true,
     "offset": 0,
     "frames": 4,
     "scans": 3
    },
    {
     "index": 1,
     "enabled": true,
     "offset": 0.4,
     "frames": 2,
     "scans": 3
    },
    {
     "index": 2,
     "enabled": true,
     "offset": 0.95,
     "frames": 2,
     "scans": 3
    }
   ],
   "is_cardio_start": false,
   "table_motion": {
    "name": "stationary"
   },
   "start_delay": 0
  }
 ],
 "author": "",
 "sievert_factor": 0.0023
}