{
 "study_id": null,
 "number": 10,
 "body_area": {
  "name": "head"
 },
 "area_kind": {
  "name": "trauma"
 },
 "name": "Trauma Head",
 "icon": "images/scan_areas/brain_icon.png",
 "area": {
  "start_x": 0,
  "stop_x": 600,
  "start_y": 100,
  "stop_y": 200,
  "start_z": 0,
  "stop_z": 400
 },
 "zero_line_position": 100,
 "description": "Анатомическая зона Head:\n1.     Головной мозг, череп:\nА.Укладка с учетом орбито-миатальной линии(*важно – не задеваем близ лежащую зону орбит, для минимизации облучения  структур)\nЗона интереса: омл-конвекс (структуры гм, черепа)\nБ. Кнопка “запоминания” положения на столе\nВ. Вход в программу сканирования пациента\nГ. Паспорт пациента , вес, рост\nД. Выбор анатомической зоны(виртуальный человек), далее протокол по потребности (список)\n     Протокол:\nскаут (1-2)\nпланирование  каждой последующей реконструкции (комплексно или по отдельности – реконструкции настраиваются в процессе настройки аппарата)\nсканирование\nавто реконструкция и пересылка на рабочую станцию\nвизуальный первичный контроль исследования\nотпускаем пациента (при удовлетворительном результате)\n Аналогично выстраиваются следующие программы в анатомической зоне head\n﻿\nварьируются укладки (центр сканирования, угол укладки (важно)), направление движения стола, последующие реконструкции\n2.     Орбиты\n3.     Ппн\n4.     Височные кости\n5.     Члх, пластика\n6.     Стоматология\nПрограммы с контрастом:\n1.Проходимость слезных каналов\n2.Ангиография, 2.1.Веногафия\n3.Онкопоиск 2 фазы, 3 фазы",
 "description_img": "resources/protocols_examples/rentgen_1.jpg",
 "example_protocol": true,
 "steps": [
  {
   "number": 1,
   "name": "Scout",
   "reconstruction": {
    "width": 512,
    "height": 512,
    "kernel": "standard",
    "noise_reduction": 1,
    "metal_correction": false,
    "resolution": "512x512",
    "slice_size": "0.5",
    "axial_distance": 1
   },
   "sequence_name": "Trauma Head",
   "scan_type": {
    "name": "scout_two_side"
   },
   "number_of_volume_images": 0,
   "start_voice_command": {
    "name": "dont_breathe"
   },
   "end_voice_command": {
    "name": ""
   },
   "is_auto_start": false,
   "patient_position": {
    "name": "head_to_gentry_on_back_arms_to_legs"
   },
   "area": {
    "start_x": 0,
    "stop_x": 600,
    "start_y": 0,
    "stop_y": 500,
    "start_z": 0,
    "stop_z": 400
   },
   "start_position": 0.0,
   "start_position_min": -356.0,
   "start_position_max": 552.0,
   "stop_position": 500.0,
   "stop_position_min": 484.0,
   "stop_position_max": 1429.0,
   "table_height": 600.0,
   "table_height_min": 550,
   "table_height_max": 700.0,
   "auto_calculated": {
    "name": "collimator"
   },
   "pitch": 0.5,
   "pitch_min": 0.5,
   "pitch_max": 1.5,
   "collimator_width": 1.2,
   "collimator_width_min": 0.6,
   "collimator_width_max": 3.33,
   "table_speed": 24.0,
   "table_speed_min": 12.0,
   "table_speed_max": 200.0,
   "kv": 70,
   "kv_min": 70,
   "kv_max": 140,
   "dose_max": 3.0,
   "ma": 525,
   "ma_min": 525,
   "ma_max": 1178,
   "contrast": {
    "type": {
     "name": "contrast_1"
    },
    "density": 300,
    "density_min": 300,
    "density_max": 400,
    "volume": 2.0,
    "volume_min": 1.0,
    "volume_max": 3.0,
    "solvent_volume": 1.0,
    "solvent_volume_min": 0.0,
    "solvent_volume_max": 2.0,
    "start_delay": 0,
    "step_delay": 0,
    "only_manual": false,
    "max_wait": 60,
    "max_check_count": 20,
    "concentration_threshold": 3,
    "diameter_roi_circle": 5.0,
    "diameter_roi_circle_min": 3.0,
    "diameter_roi_circle_max": 10.0
   },
   "cardio_start": [
    {
     "index": 0,
     "enabled": true,
     "offset": 0.1,
     "frames": 3,
     "scans": 3
    },
    {
     "index": 1,
     "enabled": true,
     "offset": 0.4,
     "frames": 2,
     "scans": 3
    },
    {
     "index": 2,
     "enabled": true,
     "offset": 0.7,
     "frames": 1,
     "scans": 3
    }
   ],
   "is_cardio_start": false,
   "table_motion": {
    "name": "moving"
   },
   "start_delay": 5
  },
  {
   "number": 2,
   "name": "3D",
   "reconstruction": {
    "width": 512,
    "height": 512,
    "kernel": "standard",
    "noise_reduction": 1,
    "metal_correction": false,
    "resolution": "512x512",
    "slice_size": "0.5",
    "axial_distance": 1
   },
   "sequence_name": "Trauma Head",
   "scan_type": {
    "name": "helical"
   },
   "number_of_volume_images": 0,
   "start_voice_command": {
    "name": ""
   },
   "end_voice_command": {
    "name": ""
   },
   "is_auto_start": false,
   "patient_position": {
    "name": "head_to_gentry_on_back_arms_to_legs"
   },
   "area": {
    "start_x": 0,
    "stop_x": 600,
    "start_y": 0,
    "stop_y": 150,
    "start_z": 0,
    "stop_z": 400
   },
   "start_position": 0.0,
   "start_position_min": -200.0,
   "start_position_max": 200.0,
   "stop_position": 150.0,
   "stop_position_min": -200.0,
   "stop_position_max": 300.0,
   "table_height": 560.0,
   "table_height_min": 550,
   "table_height_max": 700.0,
   "auto_calculated": {
    "name": "collimator"
   },
   "pitch": 0.5,
   "pitch_min": 0.5,
   "pitch_max": 1.5,
   "collimator_width": 1.2,
   "collimator_width_min": 0.6,
   "collimator_width_max": 25.0,
   "table_speed": 24.0,
   "table_speed_min": 12.0,
   "table_speed_max": 1500.0,
   "kv": 120,
   "kv_min": 100,
   "kv_max": 140,
   "dose_max": 3.0,
   "ma": 896,
   "ma_min": 765,
   "ma_max": 1178,
   "contrast": {
    "type": {
     "name": "contrast_1"
    },
    "density": 300,
    "density_min": 300,
    "density_max": 400,
    "volume": 2.0,
    "volume_min": 1.0,
    "volume_max": 3.0,
    "solvent_volume": 1.0,
    "solvent_volume_min": 0.0,
    "solvent_volume_max": 2.0,
    "start_delay": 0,
    "step_delay": 0,
    "only_manual": false,
    "max_wait": 60,
    "max_check_count": 20,
    "concentration_threshold": 3,
    "diameter_roi_circle": 5.0,
    "diameter_roi_circle_min": 3.0,
    "diameter_roi_circle_max": 10.0
   },
   "cardio_start": [
    {
     "index": 0,
     "enabled": true,
     "offset": 0.1,
     "frames": 3,
     "scans": 3
    },
    {
     "index": 1,
     "enabled": true,
     "offset": 0.4,
     "frames": 2,
     "scans": 3
    },
    {
     "index": 2,
     "enabled": true,
     "offset": 0.7,
     "frames": 1,
     "scans": 3
    }
   ],
   "is_cardio_start": false,
   "table_motion": {
    "name": "moving"
   },
   "start_delay": 0
  }
 ],
 "author": "",
 "sievert_factor": 0.016
}